[
  {
    "id": 1,
    "challenge_id": 1,
    "category_id": 5
  },
  {
    "id": 2,
    "challenge_id": 2,
    "category_id": 4
  },
  {
    "id": 3,
    "challenge_id": 3,
    "category_id": 3
  },
  {
    "id": 4,
    "challenge_id": 4,
    "category_id": 1
  }
]