[
  {
    "id": 1,
    "user_id": 1,
    "event_id": 1,
    "status": "waiting",
    "role": "host",
    "created_at": "2021-06-23 12:46:37.571233+08",
    "updated_at": "2021-06-23 12:46:37.571233+08"
  },
  {
    "id": 2,
    "user_id": 2,
    "event_id": 1,
    "status": "waiting",
    "role": "participant",
    "created_at": "2021-06-23 16:57:53.583973+08",
    "updated_at": "2021-06-23 16:57:53.583973+08"
  }
  ,
  {
    "id": 3,
    "user_id": 3,
    "event_id": 1,
    "status": "waiting",
    "role": "participant",
    "created_at": "2021-06-23 16:57:53.583973+08",
    "updated_at": "2021-06-23 16:57:53.583973+08"
  },
  {
    "id": 4,
    "user_id": 2,
    "event_id": 2,
    "status": "waiting",
    "role": "host",
    "created_at": "2021-06-23 12:46:37.571233+08",
    "updated_at": "2021-06-23 12:46:37.571233+08"
  },
  {
    "id": 5,
    "user_id": 1,
    "event_id": 2,
    "status": "waiting",
    "role": "participant",
    "created_at": "2021-06-23 16:57:53.583973+08",
    "updated_at": "2021-06-23 16:57:53.583973+08"
  }
  ,
  {
    "id": 6,
    "user_id": 3,
    "event_id": 2,
    "status": "waiting",
    "role": "participant",
    "created_at": "2021-06-23 16:57:53.583973+08",
    "updated_at": "2021-06-23 16:57:53.583973+08"
  }
  ,
  {
    "id": 7,
    "user_id": 3,
    "event_id": 3,
    "status": "waiting",
    "role": "host",
    "created_at": "2021-06-23 12:46:37.571233+08",
    "updated_at": "2021-06-23 12:46:37.571233+08"
  },
  {
    "id": 8,
    "user_id": 1,
    "event_id": 4,
    "status": "waiting",
    "role": "host",
    "created_at": "2021-06-23 12:46:37.571233+08",
    "updated_at": "2021-06-23 12:46:37.571233+08"
  },
  {
    "id": 9,
    "user_id": 2,
    "event_id": 4,
    "status": "waiting",
    "role": "participant",
    "created_at": "2021-06-23 16:57:53.583973+08",
    "updated_at": "2021-06-23 16:57:53.583973+08"
  }
  ,
  {
    "id": 10,
    "user_id": 3,
    "event_id": 4,
    "status": "waiting",
    "role": "participant",
    "created_at": "2021-06-23 16:57:53.583973+08",
    "updated_at": "2021-06-23 16:57:53.583973+08"
  },
  {
    "id": 11,
    "user_id": 1,
    "event_id": 5,
    "status": "waiting",
    "role": "host",
    "created_at": "2021-06-23 12:46:37.571233+08",
    "updated_at": "2021-06-23 12:46:37.571233+08"
  },
  {
    "id": 12,
    "user_id": 2,
    "event_id": 5,
    "status": "waiting",
    "role": "participant",
    "created_at": "2021-06-23 16:57:53.583973+08",
    "updated_at": "2021-06-23 16:57:53.583973+08"
  }
  ,
  {
    "id": 13,
    "user_id": 3,
    "event_id": 5,
    "status": "waiting",
    "role": "participant",
    "created_at": "2021-06-23 16:57:53.583973+08",
    "updated_at": "2021-06-23 16:57:53.583973+08"
  }
]